{
    "leng": "KOR",
    "pages": [
      {
        "rootName": "기업소개",
        "engRootName": "Who we are",
        "rootDir": "introduction",
        "engEnbled": true,
        "pageList": [
          {
            "pageName": "비전",
            "engPageName": "Vision",
            "fileName": "vision.do",
            "engEnbled": true
          },
          {
            "pageName": "연혁",
            "engPageName": "History",
            "fileName": "history.do",
            "engEnbled": true
          },
          {
            "pageName": "대표이사 인사말",
            "engPageName": "CEO Message",
            "fileName": "ceogreeting.do",
            "engEnbled": true
          },
          {
            "pageName": "사업장안내",
            "engPageName": "Sites",
            "fileName": "workplace.do",
            "engEnbled": true
          }
        ]
      },
      {
        "rootName": "사업영역",
        "engRootName": "What we do",
        "rootDir": "product",
        "engEnbled": true,
        "pageList": [
          {
            "pageName": "유도무기",
            "engPageName": "Precision Guided Munitions",
            "fileName": "product.do?category=01",
            "engEnbled": true
          },
          {
            "pageName": "감시정찰",
            "engPageName": "Surveillance & Reconnaissance",
            "fileName": "product.do?category=02",
            "engEnbled": true
          },
          {
            "pageName": "지휘통제통신",
            "engPageName": "Command/ Control/ Communication",
            "fileName": "product.do?category=03",
            "engEnbled": true
          },
          {
            "pageName": "항공전자",
            "engPageName": "Avionics",
            "fileName": "product.do?category=04",
            "engEnbled": true
          },
          {
            "pageName": "전자전",
            "engPageName": "Electronic Warfare",
            "fileName": "product.do?category=05",
            "engEnbled": true
          },
          {
            "pageName": "무인체계",
            "engPageName": "Unmanned Systems",
            "fileName": "product.do?category=06",
            "engEnbled": true
          },
          {
            "pageName": "미래기술",
            "engPageName": "Future Technology",
            "fileName": "product.do?category=07",
            "engEnbled": true
          },
          {
            "pageName": "MRO",
            "engPageName": "Logistics Services",
            "fileName": "product.do?category=08",
            "engEnbled": true
          },
          {
            "pageName": "제품전체보기",
            "engPageName": "Our Products",
            "fileName": "product.do?category=09",
            "engEnbled": true
          }
        ]
      },
      {
        "rootName": "지속가능경영",
        "engRootName": "Sustainability Management",
        "engMenuAlign": "mobScroll",
        "rootDir": "management",
        "engEnbled": true,
        "pageList": [
          {
            "pageName": "윤리/준법",
            "engPageName": "Ethics & Compliance",
            "menuAlign": true,
            "engMenuAlign": "scroll",
            "engEnbled": true,
            "subMenu": [
              {
                "pageName": "윤리경영철학",
                "engPageName": "Ethics Philosophy",
                "fileName": "philosophy.do",
                "engEnbled": true
              },
              {
                "pageName": "규정",
                "engPageName": "Regulations",
                "fileName": "rule.do",
                "engEnbled": true
              },
              {
                "pageName": "활동",
                "engPageName": "Compliance Activities",
                "fileName": "activity/list.do",
                "engEnbled": true
              },
              {
                "pageName": "신고센터",
                "engPageName": "Reporting & Investigations",
                "fileName": "reportCenter/guided.do",
                "engEnbled": true
              }
            ]
          },
          {
            "pageName": "상생경영",
            "engPageName": "Win-Win Partnership",
            "fileName": "winwinManagement.do",
            "engEnbled": true,
            "subMenu": [
              {
                "pageName": "상생협력 문화구축",
                "engPageName": "Win-Win Partnership Culture",
                "fileName": "winwinCulture.do",
                "engEnbled": true
              },
              {
                "pageName": "동반성장",
                "engPageName": "Shared Growth",
                "fileName": "sharedGrowth.do",
                "engEnbled": true
              },
              {
                "pageName": "시장개척",
                "engPageName": "Market Pioneering",
                "fileName": "marketDevelopment.do",
                "engEnbled": true
              }
            ]
          },
          {
            "pageName": "사회공헌",
            "engPageName": "Corporate Social Responsibility",
            "fileName": "introduction.do",
            "engEnbled": true,
            "subMenu": [
              {
                "pageName": "호국보훈",
                "engPageName": "Support for<br>Veterans",
                "fileName": "patriots.do",
                "engEnbled": true
              },
              {
                "pageName": "지역상생",
                "engPageName": "Networking with Community",
                "fileName": "regionalCoProsperity.do",
                "engEnbled": true
              },
              {
                "pageName": "희망나눔",
                "engPageName": "Talent Donation",
                "fileName": "hopeSharing.do",
                "engEnbled": true
              },
              {
                "pageName": "해외봉사",
                "engPageName": "Overseas Volunteer Activities",
                "fileName": "overseasVolunteering.do",
                "engEnbled": true
              }
            ]
          }
        ]
      },
      {
        "rootName": "투자정보",
        "engRootName": "Investors",
        "rootDir": "investment",
        "engMenuAlign": "mobScroll",
        "engEnbled": true,
        "pageList": [
          {
            "pageName": "개요",
            "engPageName": "Stock & IR",
            "fileName": "summury.do",
            "engEnbled": true
          },
          {
            "pageName": "재무정보",
            "engPageName": "Financial Disclosure",
            "engEnbled": true,
            "subMenu": [
              {
                "pageName": "요약재무제표",
                "engPageName": "Summary of Financial<br> Statements",
                "fileName": "condensedFinancialStatements.do",
                "engEnbled": true
              },
              {
                "pageName": "감사보고서",
                "engPageName": "Auditor’s Report",
                "fileName": "auditReport.do",
                "engEnbled": true
              },
              {
                "pageName": "신용평가등급",
                "engPageName": "Credit Rating",
                "fileName": "creditRating.do",
                "engEnbled": true
              }
            ]
          },
          {
            "pageName": "IR정보",
            "engPageName": "Stock & IR News",
            "engEnbled": true,
            "subMenu": [
              {
                "pageName": "사업보고서",
                "engPageName": "Business Report",
                "fileName": "businessReport/list.do",
                "engEnbled": true
              },
              {
                "pageName": "영업보고서",
                "engPageName": "Operation Report",
                "fileName": "salesReport/list.do",
                "engEnbled": true
              },
              {
                "pageName": "IR자료",
                "engPageName": "IR Data",
                "fileName": "IRResource/list.do",
                "engEnbled": true
              },
              {
                "pageName": "IR행사",
                "engPageName": "IR Events",
                "fileName": "IREvent/list.do",
                "engEnbled": true
              }
            ]
          },
          {
            "pageName": "공시",
            "engPageName": "Public Notices",
            "fileName": "disclosure.do",
            "engEnbled": true
          },
          {
            "pageName": "공고",
            "engPageName": "Legal Announcements",
            "fileName": "announcement/list.do",
            "engEnbled": true
          }
        ]
      },
      {
        "rootName": "인재채용",
        "engRootName": "Careers",
        "engMenuAlign": "mobScroll",
        "rootDir": "recruit",
        "engEnbled": true,
        "pageList": [
          {
            "pageName": "인사제도",
            "engPageName": "H.R. System",
            "engMenuAlign": "scroll",
            "engEnbled": true,
            "subMenu": [
              {
                "pageName": "인재상",
                "engPageName": "Employees in Pursuit",
                "fileName": "talent.do",
                "engEnbled": true
              },
              {
                "pageName": "조직문화",
                "engPageName": "Corporate Culture",
                "fileName": "organizationalCulture.do",
                "engEnbled": true
              },
              {
                "pageName": "복리후생",
                "engPageName": "Welfare Benefits",
                "fileName": "benefits.do",
                "engEnbled": true
              },
              {
                "pageName": "교육제도",
                "engPageName": "Training & Career Development System",
                "fileName": "educationalSystem.do",
                "engEnbled": true
              }
            ]
          },
          {
            "pageName": "직무소개",
            "engPageName": "Job Descriptions",
            "fileName": "introduction/list.do",
            "engEnbled": false
          },
          {
            "pageName": "채용전형",
            "engPageName": "Employment Exams",
            "fileName": "recuritmenttype.do",
            "engEnbled": true
          },
          {
            "pageName": "채용공고",
            "engPageName": "Job Posting Announcement",
            "fileName": "jobannouncement/list.do",
            "engEnbled": true
          }
        ]
      },
      {
        "rootName": "홍보센터",
        "engRootName": "PR Center",
        "rootDir": "prcenter",
        "engEnbled": true,
        "pageList": [
          {
            "pageName": "넥스원 뉴스",
            "engPageName": "Nex1 News",
            "fileName": "news/list.do",
            "engEnbled": false
          },
          {
            "pageName": "전시회",
            "engPageName": "TRADE SHOW",
            "fileName": "tradeShow/list.do",
            "engEnbled": true
          },
          {
            "pageName": "홍보자료실",
            "engPageName": "PR Contents",
            "engEnbled": true,
            "subMenu": [
              {
                "pageName": "사보",
                "engPageName": "Newsletter",
                "fileName": "newsletter.do",
                "engEnbled": false
              },
              {
                "pageName": "브로슈어",
                "engPageName": "Brochure",
                "fileName": "brochure.do",
                "engEnbled": true
              },
              {
                "pageName": "영상",
                "engPageName": "PR Video",
                "fileName": "videoClip.do",
                "engEnbled": true
              },
              {
                "pageName": "CI",
                "engPageName": "CI",
                "fileName": "ci.do",
                "engEnbled": true
              }
            ]
          }
        ]
      }
    ]
  }